<svg width="647" height="267" viewBox="0 0 647 267" fill="none" xmlns="http://www.w3.org/2000/svg">
<mask id="mask0_935_62" style="mask-type:alpha" maskUnits="userSpaceOnUse" x="0" y="0" width="647" height="267">
<rect width="647" height="267" fill="#FBFBFB"/>
</mask>
<g mask="url(#mask0_935_62)">
<path d="M617.451 268.422C587.702 268.422 573.131 232.678 565.845 213.292L564.631 210.262C557.952 193.905 548.238 168.46 537.31 168.46C525.775 168.46 516.668 191.482 509.382 209.657C506.954 216.321 503.918 222.985 501.489 229.043C484.49 265.999 463.24 269.028 452.312 267.21C428.634 264.181 415.277 238.736 405.563 215.109C404.956 213.292 404.349 211.474 403.134 209.657C396.456 193.299 386.742 168.46 375.813 168.46C363.064 168.46 353.35 193.905 346.064 212.686C344.85 215.715 343.636 219.35 342.421 221.773C336.957 235.707 323.6 267.816 295.065 267.816C265.316 267.816 250.745 232.072 243.459 212.686L242.245 209.657C235.566 193.299 225.852 167.854 214.924 167.854C203.389 167.854 194.282 190.876 186.996 209.051C184.568 215.715 181.532 222.379 179.103 228.437C162.104 265.393 140.854 268.422 129.926 266.605C106.248 263.575 92.8909 238.131 83.1768 214.503C82.5697 212.686 81.9626 210.868 80.7483 209.051C74.0699 192.693 64.3558 167.854 53.4274 167.854C43.7134 167.854 30.9636 191.482 26.1066 207.839L0 201.175C1.82139 195.117 18.2139 141.198 53.4274 141.198C83.1768 141.198 96.5337 175.124 106.248 199.963C106.855 201.781 107.462 203.598 108.676 205.416C112.319 213.897 122.033 239.342 133.569 240.554C139.033 241.16 147.533 232.678 154.211 218.138C156.64 212.686 159.068 206.627 161.497 200.569C171.211 173.913 183.96 141.198 214.924 141.198C244.673 141.198 258.03 175.124 268.351 199.963L269.566 202.992C273.208 212.08 284.744 240.554 295.672 240.554C299.922 240.554 307.815 235.707 317.529 211.474C318.743 208.445 319.958 205.416 321.172 202.387C330.886 175.124 344.243 141.198 375.813 141.198C405.563 141.198 418.92 175.124 428.634 199.963C429.241 201.781 429.848 203.598 431.062 205.416C434.705 213.897 444.419 239.342 455.955 240.554C461.419 241.16 469.919 232.678 476.597 218.138C479.026 212.686 481.454 206.627 483.883 200.569C493.597 173.913 506.346 141.198 536.703 141.198C566.452 141.198 579.809 175.124 590.13 199.963L591.345 202.992C594.987 212.08 606.523 240.554 617.451 240.554C627.165 240.554 639.915 216.927 644.772 200.569L671.486 208.445C669.057 214.503 652.665 268.422 617.451 268.422Z" fill="#FBFBFB"/>
<path d="M617.451 159.454C587.702 159.454 573.131 123.71 565.845 104.324L564.631 101.295C557.952 84.9372 548.238 59.4923 537.31 59.4923C525.775 59.4923 516.668 82.5139 509.382 100.689C506.954 107.353 503.918 114.017 501.489 120.075C484.49 157.031 463.24 160.06 452.312 158.243C428.634 155.214 415.277 129.769 405.563 106.141C404.956 104.324 404.349 102.506 403.134 100.689C396.456 84.3314 386.742 59.4923 375.813 59.4923C363.064 59.4923 353.35 84.9372 346.064 103.718C344.85 106.747 343.636 110.382 342.421 112.805C336.957 126.74 323.6 158.849 295.065 158.849C265.316 158.849 250.745 123.105 243.459 103.718L242.245 100.689C235.566 84.3314 225.852 58.8865 214.924 58.8865C203.389 58.8865 194.282 81.9081 186.996 100.083C184.568 106.747 181.532 113.411 179.103 119.47C162.104 156.425 140.854 159.454 129.926 157.637C106.248 154.608 92.8909 129.163 83.1768 105.535C82.5697 103.718 81.9626 101.9 80.7483 100.083C74.0699 83.7256 64.3558 58.8865 53.4274 58.8865C43.7134 58.8865 30.9636 82.5139 26.1066 98.8713L0 92.2072C1.82139 86.1489 18.2139 32.23 53.4274 32.23C83.1768 32.23 96.5337 66.1565 106.248 90.9955C106.855 92.813 107.462 94.6305 108.676 96.448C112.319 104.93 122.033 130.374 133.569 131.586C139.033 132.192 147.533 123.71 154.211 109.17C156.64 103.718 159.068 97.6597 161.497 91.6013C171.211 64.9448 183.96 32.23 214.924 32.23C244.673 32.23 258.03 66.1565 268.351 90.9955L269.566 94.0247C273.208 103.112 284.744 131.586 295.672 131.586C299.922 131.586 307.815 126.74 317.529 102.506C318.743 99.4771 319.958 96.448 321.172 93.4188C330.886 66.1565 344.243 32.23 375.813 32.23C405.563 32.23 418.92 66.1565 428.634 90.9955C429.241 92.813 429.848 94.6305 431.062 96.448C434.705 104.93 444.419 130.374 455.955 131.586C461.419 132.192 469.919 123.71 476.597 109.17C479.026 103.718 481.454 97.6597 483.883 91.6013C493.597 64.9448 506.346 32.23 536.703 32.23C566.452 32.23 579.809 66.1565 590.13 90.9955L591.345 94.0247C594.987 103.112 606.523 131.586 617.451 131.586C627.165 131.586 639.915 107.959 644.772 91.6013L671.486 99.4771C669.057 105.535 652.665 159.454 617.451 159.454Z" fill="#FBFBFB"/>
<path d="M617.451 51.0566C587.702 51.0566 573.131 15.3126 565.845 -4.07392L564.631 -7.10307C557.952 -23.4605 548.238 -48.9054 537.31 -48.9054C525.775 -48.9054 516.668 -25.8838 509.382 -7.7089C506.954 -1.04477 503.918 5.61936 501.489 11.6777C484.49 48.6333 463.24 51.6625 452.312 49.845C428.634 46.8158 415.277 21.3709 405.563 -2.25643C404.956 -4.07392 404.349 -5.89141 403.134 -7.7089C396.456 -24.0663 386.742 -48.9054 375.813 -48.9054C363.064 -48.9054 353.35 -23.4605 346.064 -4.67975C344.85 -1.6506 343.636 1.98438 342.421 4.40771C336.957 18.3418 323.6 50.4508 295.065 50.4508C265.316 50.4508 250.745 14.7068 243.459 -4.67975L242.245 -7.7089C235.566 -24.0663 225.852 -49.5112 214.924 -49.5112C203.389 -49.5112 194.282 -26.4896 186.996 -8.31474C184.568 -1.6506 181.532 5.01353 179.103 11.0718C162.104 48.0275 140.854 51.0566 129.926 49.2392C106.248 46.21 92.8909 20.7651 83.1768 -2.86226C82.5697 -4.67975 81.9626 -6.49725 80.7483 -8.31474C74.0699 -24.6722 64.3558 -49.5112 53.4274 -49.5112C43.7134 -49.5112 30.9636 -25.8838 26.1066 -9.52639L0 -16.1905C1.82139 -22.2488 18.2139 -76.1677 53.4274 -76.1677C83.1768 -76.1677 96.5337 -42.2412 106.248 -17.4022C106.855 -15.5847 107.462 -13.7672 108.676 -11.9497C112.319 -3.46809 122.033 21.9768 133.569 23.1884C139.033 23.7943 147.533 15.3126 154.211 0.77272C156.64 -4.67975 159.068 -10.7381 161.497 -16.7964C171.211 -43.4529 183.96 -76.1677 214.924 -76.1677C244.673 -76.1677 258.03 -42.2412 268.351 -17.4022L269.566 -14.373C273.208 -5.28558 284.744 23.1884 295.672 23.1884C299.922 23.1884 307.815 18.3418 317.529 -5.89141C318.743 -8.92056 319.958 -11.9497 321.172 -14.9789C330.886 -42.2412 344.243 -76.1677 375.813 -76.1677C405.563 -76.1677 418.92 -42.2412 428.634 -17.4022C429.241 -15.5847 429.848 -13.7672 431.062 -11.9497C434.705 -3.46809 444.419 21.9768 455.955 23.1884C461.419 23.7943 469.919 15.3126 476.597 0.77272C479.026 -4.67975 481.454 -10.7381 483.883 -16.7964C493.597 -43.4529 506.346 -76.1677 536.703 -76.1677C566.452 -76.1677 579.809 -42.2412 590.13 -17.4022L591.345 -14.373C594.987 -5.28558 606.523 23.1884 617.451 23.1884C627.165 23.1884 639.915 -0.438934 644.772 -16.7964L671.486 -8.92056C669.057 -2.86226 652.665 51.0566 617.451 51.0566Z" fill="#FBFBFB"/>
</g>
</svg>
