<svg width="20" height="20" viewBox="0 0 20 20" fill="none" xmlns="http://www.w3.org/2000/svg">
<rect width="20" height="20" rx="3" fill="#d1d1d1"/>
<path d="M15.719 5.00048C15.4196 5.0092 15.1353 5.13411 14.9263 5.34877C14.6662 5.60887 12.9447 7.37846 11.1672 9.20398C9.72406 10.6861 8.70717 11.7288 8.13468 12.3146L4.90999 9.85852C4.79094 9.75493 4.6519 9.67687 4.50146 9.62919C4.35103 9.58151 4.19241 9.56523 4.03542 9.58133C3.87843 9.59743 3.72642 9.64558 3.5888 9.72281C3.45118 9.80004 3.33087 9.90468 3.23533 10.0303C3.13979 10.1559 3.07105 10.2998 3.03336 10.453C2.99568 10.6063 2.98985 10.7656 3.01624 10.9212C3.04262 11.0768 3.10067 11.2253 3.18678 11.3575C3.27288 11.4898 3.38522 11.603 3.51683 11.69L7.55219 14.7646C7.77413 14.9335 8.04974 15.0162 8.32797 14.9974C8.6062 14.9786 8.8682 14.8596 9.06545 14.6625C9.32555 14.4024 11.0471 12.6388 12.8246 10.8133C14.6021 8.98779 16.4355 7.10035 16.5597 6.97613C16.7252 6.81378 16.8378 6.60532 16.8831 6.37796C16.9283 6.15059 16.9039 5.91489 16.8131 5.70158C16.7224 5.48828 16.5694 5.30729 16.3742 5.18222C16.1791 5.05715 15.9507 4.99382 15.719 5.00048Z" fill="white"/>
</svg>
