<svg width="647" height="536" viewBox="0 0 647 536" fill="none" xmlns="http://www.w3.org/2000/svg">
<mask id="mask0_935_52" style="mask-type:alpha" maskUnits="userSpaceOnUse" x="0" y="0" width="647" height="536">
<rect width="647" height="536" fill="#C4C4C4"/>
</mask>
<g mask="url(#mask0_935_52)">
<path d="M617.451 586.857C587.702 586.857 573.131 551.056 565.845 531.638L564.631 528.604C557.952 512.221 548.238 486.735 537.31 486.735C525.775 486.735 516.668 509.793 509.382 527.997C506.954 534.672 503.918 541.347 501.489 547.415C484.49 584.43 463.24 587.464 452.312 585.644C428.634 582.61 415.277 557.124 405.563 533.459C404.956 531.638 404.349 529.818 403.134 527.997C396.456 511.614 386.742 486.735 375.813 486.735C363.064 486.735 353.35 512.221 346.064 531.031C344.85 534.065 343.636 537.706 342.421 540.133C336.957 554.09 323.6 586.25 295.065 586.25C265.316 586.25 250.745 550.449 243.459 531.031L242.245 527.997C235.566 511.614 225.852 486.128 214.924 486.128C203.389 486.128 194.282 509.187 186.996 527.391C184.568 534.065 181.532 540.74 179.103 546.808C162.104 583.823 140.854 586.857 129.926 585.037C106.248 582.003 92.8909 556.517 83.1768 532.852C82.5697 531.031 81.9626 529.211 80.7483 527.391C74.0699 511.007 64.3558 486.128 53.4274 486.128C43.7134 486.128 30.9636 509.793 26.1066 526.177L0 519.502C1.82139 513.434 18.2139 459.429 53.4274 459.429C83.1768 459.429 96.5337 493.41 106.248 518.289C106.855 520.109 107.462 521.929 108.676 523.75C112.319 532.245 122.033 557.731 133.569 558.944C139.033 559.551 147.533 551.056 154.211 536.493C156.64 531.031 159.068 524.963 161.497 518.895C171.211 492.196 183.96 459.429 214.924 459.429C244.673 459.429 258.03 493.41 268.351 518.289L269.566 521.323C273.208 530.425 284.744 558.944 295.672 558.944C299.922 558.944 307.815 554.09 317.529 529.818C318.743 526.784 319.958 523.75 321.172 520.716C330.886 493.41 344.243 459.429 375.813 459.429C405.563 459.429 418.92 493.41 428.634 518.289C429.241 520.109 429.848 521.929 431.062 523.75C434.705 532.245 444.419 557.731 455.955 558.944C461.419 559.551 469.919 551.056 476.597 536.493C479.026 531.031 481.454 524.963 483.883 518.895C493.597 492.196 506.346 459.429 536.703 459.429C566.452 459.429 579.809 493.41 590.13 518.289L591.345 521.323C594.987 530.425 606.523 558.944 617.451 558.944C627.165 558.944 639.915 535.279 644.772 518.895L671.486 526.784C669.057 532.852 652.665 586.857 617.451 586.857Z" fill="#000C9E"/>
<path d="M617.451 149.714C587.702 149.714 573.131 113.913 565.845 94.4952L564.631 91.4612C557.952 75.0775 548.238 49.5918 537.31 49.5918C525.775 49.5918 516.668 72.6503 509.382 90.8544C506.954 97.5292 503.918 104.204 501.489 110.272C484.49 147.287 463.24 150.321 452.312 148.501C428.634 145.467 415.277 119.981 405.563 96.3156C404.956 94.4952 404.349 92.6748 403.134 90.8544C396.456 74.4707 386.742 49.5918 375.813 49.5918C363.064 49.5918 353.35 75.0775 346.064 93.8884C344.85 96.9224 343.636 100.563 342.421 102.99C336.957 116.947 323.6 149.107 295.065 149.107C265.316 149.107 250.745 113.306 243.459 93.8884L242.245 90.8544C235.566 74.4707 225.852 48.985 214.924 48.985C203.389 48.985 194.282 72.0435 186.996 90.2476C184.568 96.9224 181.532 103.597 179.103 109.665C162.104 146.68 140.854 149.714 129.926 147.894C106.248 144.86 92.8909 119.374 83.1768 95.7088C82.5697 93.8884 81.9626 92.068 80.7483 90.2476C74.0699 73.8639 64.3558 48.985 53.4274 48.985C43.7134 48.985 30.9636 72.6503 26.1066 89.034L0 82.3591C1.82139 76.2911 18.2139 22.2856 53.4274 22.2856C83.1768 22.2856 96.5337 56.2666 106.248 81.1455C106.855 82.9659 107.462 84.7863 108.676 86.6067C112.319 95.102 122.033 120.588 133.569 121.801C139.033 122.408 147.533 113.913 154.211 99.3496C156.64 93.8884 159.068 87.8203 161.497 81.7523C171.211 55.053 183.96 22.2856 214.924 22.2856C244.673 22.2856 258.03 56.2666 268.351 81.1455L269.566 84.1795C273.208 93.2816 284.744 121.801 295.672 121.801C299.922 121.801 307.815 116.947 317.529 92.6748C318.743 89.6408 319.958 86.6067 321.172 83.5727C330.886 56.2666 344.243 22.2856 375.813 22.2856C405.563 22.2856 418.92 56.2666 428.634 81.1455C429.241 82.9659 429.848 84.7863 431.062 86.6067C434.705 95.102 444.419 120.588 455.955 121.801C461.419 122.408 469.919 113.913 476.597 99.3496C479.026 93.8884 481.454 87.8203 483.883 81.7523C493.597 55.053 506.346 22.2856 536.703 22.2856C566.452 22.2856 579.809 56.2666 590.13 81.1455L591.345 84.1795C594.987 93.2816 606.523 121.801 617.451 121.801C627.165 121.801 639.915 98.136 644.772 81.7523L671.486 89.6408C669.057 95.7088 652.665 149.714 617.451 149.714Z" fill="#000C9E"/>
<path d="M617.451 586.857C587.702 586.857 573.131 551.056 565.845 531.638L564.631 528.604C557.952 512.221 548.238 486.735 537.31 486.735C525.775 486.735 516.668 509.793 509.382 527.997C506.954 534.672 503.918 541.347 501.489 547.415C484.49 584.43 463.24 587.464 452.312 585.644C428.634 582.61 415.277 557.124 405.563 533.459C404.956 531.638 404.349 529.818 403.134 527.997C396.456 511.614 386.742 486.735 375.813 486.735C363.064 486.735 353.35 512.221 346.064 531.031C344.85 534.065 343.636 537.706 342.421 540.133C336.957 554.09 323.6 586.25 295.065 586.25C265.316 586.25 250.745 550.449 243.459 531.031L242.245 527.997C235.566 511.614 225.852 486.128 214.924 486.128C203.389 486.128 194.282 509.187 186.996 527.391C184.568 534.065 181.532 540.74 179.103 546.808C162.104 583.823 140.854 586.857 129.926 585.037C106.248 582.003 92.8909 556.517 83.1768 532.852C82.5697 531.031 81.9626 529.211 80.7483 527.391C74.0699 511.007 64.3558 486.128 53.4274 486.128C43.7134 486.128 30.9636 509.793 26.1066 526.177L0 519.502C1.82139 513.434 18.2139 459.429 53.4274 459.429C83.1768 459.429 96.5337 493.41 106.248 518.289C106.855 520.109 107.462 521.929 108.676 523.75C112.319 532.245 122.033 557.731 133.569 558.944C139.033 559.551 147.533 551.056 154.211 536.493C156.64 531.031 159.068 524.963 161.497 518.895C171.211 492.196 183.96 459.429 214.924 459.429C244.673 459.429 258.03 493.41 268.351 518.289L269.566 521.323C273.208 530.425 284.744 558.944 295.672 558.944C299.922 558.944 307.815 554.09 317.529 529.818C318.743 526.784 319.958 523.75 321.172 520.716C330.886 493.41 344.243 459.429 375.813 459.429C405.563 459.429 418.92 493.41 428.634 518.289C429.241 520.109 429.848 521.929 431.062 523.75C434.705 532.245 444.419 557.731 455.955 558.944C461.419 559.551 469.919 551.056 476.597 536.493C479.026 531.031 481.454 524.963 483.883 518.895C493.597 492.196 506.346 459.429 536.703 459.429C566.452 459.429 579.809 493.41 590.13 518.289L591.345 521.323C594.987 530.425 606.523 558.944 617.451 558.944C627.165 558.944 639.915 535.279 644.772 518.895L671.486 526.784C669.057 532.852 652.665 586.857 617.451 586.857Z" fill="#000C9E"/>
<path d="M617.451 476.572C587.702 476.572 573.131 440.77 565.845 421.353L564.631 418.319C557.952 401.935 548.238 376.449 537.31 376.449C525.775 376.449 516.668 399.508 509.382 417.712C506.954 424.387 503.918 431.061 501.489 437.129C484.49 474.144 463.24 477.178 452.312 475.358C428.634 472.324 415.277 446.838 405.563 423.173C404.956 421.353 404.349 419.532 403.134 417.712C396.456 401.328 386.742 376.449 375.813 376.449C363.064 376.449 353.35 401.935 346.064 420.746C344.85 423.78 343.636 427.421 342.421 429.848C336.957 443.804 323.6 475.965 295.065 475.965C265.316 475.965 250.745 440.163 243.459 420.746L242.245 417.712C235.566 401.328 225.852 375.842 214.924 375.842C203.389 375.842 194.282 398.901 186.996 417.105C184.568 423.78 181.532 430.455 179.103 436.523C162.104 473.538 140.854 476.572 129.926 474.751C106.248 471.717 92.8909 446.232 83.1768 422.566C82.5697 420.746 81.9626 418.925 80.7483 417.105C74.0699 400.721 64.3558 375.842 53.4274 375.842C43.7134 375.842 30.9636 399.508 26.1066 415.891L0 409.217C1.82139 403.149 18.2139 349.143 53.4274 349.143C83.1768 349.143 96.5337 383.124 106.248 408.003C106.855 409.823 107.462 411.644 108.676 413.464C112.319 421.959 122.033 447.445 133.569 448.659C139.033 449.266 147.533 440.77 154.211 426.207C156.64 420.746 159.068 414.678 161.497 408.61C171.211 381.91 183.96 349.143 214.924 349.143C244.673 349.143 258.03 383.124 268.351 408.003L269.566 411.037C273.208 420.139 284.744 448.659 295.672 448.659C299.922 448.659 307.815 443.804 317.529 419.532C318.743 416.498 319.958 413.464 321.172 410.43C330.886 383.124 344.243 349.143 375.813 349.143C405.563 349.143 418.92 383.124 428.634 408.003C429.241 409.823 429.848 411.644 431.062 413.464C434.705 421.959 444.419 447.445 455.955 448.659C461.419 449.266 469.919 440.77 476.597 426.207C479.026 420.746 481.454 414.678 483.883 408.61C493.597 381.91 506.346 349.143 536.703 349.143C566.452 349.143 579.809 383.124 590.13 408.003L591.345 411.037C594.987 420.139 606.523 448.659 617.451 448.659C627.165 448.659 639.915 424.993 644.772 408.61L671.486 416.498C669.057 422.566 652.665 476.572 617.451 476.572Z" fill="#000C9E"/>
<path d="M617.451 367.429C587.702 367.429 573.131 331.627 565.845 312.21L564.631 309.176C557.952 292.792 548.238 267.306 537.31 267.306C525.775 267.306 516.668 290.365 509.382 308.569C506.954 315.244 503.918 321.918 501.489 327.986C484.49 365.001 463.24 368.035 452.312 366.215C428.634 363.181 415.277 337.695 405.563 314.03C404.956 312.21 404.349 310.389 403.134 308.569C396.456 292.185 386.742 267.306 375.813 267.306C363.064 267.306 353.35 292.792 346.064 311.603C344.85 314.637 343.636 318.278 342.421 320.705C336.957 334.661 323.6 366.822 295.065 366.822C265.316 366.822 250.745 331.02 243.459 311.603L242.245 308.569C235.566 292.185 225.852 266.699 214.924 266.699C203.389 266.699 194.282 289.758 186.996 307.962C184.568 314.637 181.532 321.312 179.103 327.38C162.104 364.395 140.854 367.429 129.926 365.608C106.248 362.574 92.8909 337.088 83.1768 313.423C82.5697 311.603 81.9626 309.782 80.7483 307.962C74.0699 291.578 64.3558 266.699 53.4274 266.699C43.7134 266.699 30.9636 290.365 26.1066 306.748L0 300.073C1.82139 294.005 18.2139 240 53.4274 240C83.1768 240 96.5337 273.981 106.248 298.86C106.855 300.68 107.462 302.501 108.676 304.321C112.319 312.816 122.033 338.302 133.569 339.516C139.033 340.122 147.533 331.627 154.211 317.064C156.64 311.603 159.068 305.535 161.497 299.467C171.211 272.767 183.96 240 214.924 240C244.673 240 258.03 273.981 268.351 298.86L269.566 301.894C273.208 310.996 284.744 339.516 295.672 339.516C299.922 339.516 307.815 334.661 317.529 310.389C318.743 307.355 319.958 304.321 321.172 301.287C330.886 273.981 344.243 240 375.813 240C405.563 240 418.92 273.981 428.634 298.86C429.241 300.68 429.848 302.501 431.062 304.321C434.705 312.816 444.419 338.302 455.955 339.516C461.419 340.122 469.919 331.627 476.597 317.064C479.026 311.603 481.454 305.535 483.883 299.467C493.597 272.767 506.346 240 536.703 240C566.452 240 579.809 273.981 590.13 298.86L591.345 301.894C594.987 310.996 606.523 339.516 617.451 339.516C627.165 339.516 639.915 315.85 644.772 299.467L671.486 307.355C669.057 313.423 652.665 367.429 617.451 367.429Z" fill="#000C9E"/>
<path d="M617.451 258.286C587.702 258.286 573.131 222.484 565.845 203.067L564.631 200.033C557.952 183.649 548.238 158.163 537.31 158.163C525.775 158.163 516.668 181.222 509.382 199.426C506.954 206.101 503.918 212.776 501.489 218.844C484.49 255.859 463.24 258.893 452.312 257.072C428.634 254.038 415.277 228.552 405.563 204.887C404.956 203.067 404.349 201.246 403.134 199.426C396.456 183.042 386.742 158.163 375.813 158.163C363.064 158.163 353.35 183.649 346.064 202.46C344.85 205.494 343.636 209.135 342.421 211.562C336.957 225.518 323.6 257.679 295.065 257.679C265.316 257.679 250.745 221.878 243.459 202.46L242.245 199.426C235.566 183.042 225.852 157.556 214.924 157.556C203.389 157.556 194.282 180.615 186.996 198.819C184.568 205.494 181.532 212.169 179.103 218.237C162.104 255.252 140.854 258.286 129.926 256.465C106.248 253.431 92.8909 227.946 83.1768 204.28C82.5697 202.46 81.9626 200.639 80.7483 198.819C74.0699 182.435 64.3558 157.556 53.4274 157.556C43.7134 157.556 30.9636 181.222 26.1066 197.605L0 190.931C1.82139 184.863 18.2139 130.857 53.4274 130.857C83.1768 130.857 96.5337 164.838 106.248 189.717C106.855 191.537 107.462 193.358 108.676 195.178C112.319 203.674 122.033 229.159 133.569 230.373C139.033 230.98 147.533 222.484 154.211 207.921C156.64 202.46 159.068 196.392 161.497 190.324C171.211 163.625 183.96 130.857 214.924 130.857C244.673 130.857 258.03 164.838 268.351 189.717L269.566 192.751C273.208 201.853 284.744 230.373 295.672 230.373C299.922 230.373 307.815 225.518 317.529 201.246C318.743 198.212 319.958 195.178 321.172 192.144C330.886 164.838 344.243 130.857 375.813 130.857C405.563 130.857 418.92 164.838 428.634 189.717C429.241 191.537 429.848 193.358 431.062 195.178C434.705 203.674 444.419 229.159 455.955 230.373C461.419 230.98 469.919 222.484 476.597 207.921C479.026 202.46 481.454 196.392 483.883 190.324C493.597 163.625 506.346 130.857 536.703 130.857C566.452 130.857 579.809 164.838 590.13 189.717L591.345 192.751C594.987 201.853 606.523 230.373 617.451 230.373C627.165 230.373 639.915 206.708 644.772 190.324L671.486 198.212C669.057 204.28 652.665 258.286 617.451 258.286Z" fill="#000C9E"/>
<path d="M617.451 476.572C587.702 476.572 573.131 440.77 565.845 421.353L564.631 418.319C557.952 401.935 548.238 376.449 537.31 376.449C525.775 376.449 516.668 399.508 509.382 417.712C506.954 424.387 503.918 431.061 501.489 437.129C484.49 474.144 463.24 477.178 452.312 475.358C428.634 472.324 415.277 446.838 405.563 423.173C404.956 421.353 404.349 419.532 403.134 417.712C396.456 401.328 386.742 376.449 375.813 376.449C363.064 376.449 353.35 401.935 346.064 420.746C344.85 423.78 343.636 427.421 342.421 429.848C336.957 443.804 323.6 475.965 295.065 475.965C265.316 475.965 250.745 440.163 243.459 420.746L242.245 417.712C235.566 401.328 225.852 375.842 214.924 375.842C203.389 375.842 194.282 398.901 186.996 417.105C184.568 423.78 181.532 430.455 179.103 436.523C162.104 473.538 140.854 476.572 129.926 474.751C106.248 471.717 92.8909 446.232 83.1768 422.566C82.5697 420.746 81.9626 418.925 80.7483 417.105C74.0699 400.721 64.3558 375.842 53.4274 375.842C43.7134 375.842 30.9636 399.508 26.1066 415.891L0 409.217C1.82139 403.149 18.2139 349.143 53.4274 349.143C83.1768 349.143 96.5337 383.124 106.248 408.003C106.855 409.823 107.462 411.644 108.676 413.464C112.319 421.959 122.033 447.445 133.569 448.659C139.033 449.266 147.533 440.77 154.211 426.207C156.64 420.746 159.068 414.678 161.497 408.61C171.211 381.91 183.96 349.143 214.924 349.143C244.673 349.143 258.03 383.124 268.351 408.003L269.566 411.037C273.208 420.139 284.744 448.659 295.672 448.659C299.922 448.659 307.815 443.804 317.529 419.532C318.743 416.498 319.958 413.464 321.172 410.43C330.886 383.124 344.243 349.143 375.813 349.143C405.563 349.143 418.92 383.124 428.634 408.003C429.241 409.823 429.848 411.644 431.062 413.464C434.705 421.959 444.419 447.445 455.955 448.659C461.419 449.266 469.919 440.77 476.597 426.207C479.026 420.746 481.454 414.678 483.883 408.61C493.597 381.91 506.346 349.143 536.703 349.143C566.452 349.143 579.809 383.124 590.13 408.003L591.345 411.037C594.987 420.139 606.523 448.659 617.451 448.659C627.165 448.659 639.915 424.993 644.772 408.61L671.486 416.498C669.057 422.566 652.665 476.572 617.451 476.572Z" fill="#000C9E"/>
<path d="M617.451 149.714C587.702 149.714 573.131 113.913 565.845 94.4952L564.631 91.4612C557.952 75.0775 548.238 49.5918 537.31 49.5918C525.775 49.5918 516.668 72.6503 509.382 90.8544C506.954 97.5292 503.918 104.204 501.489 110.272C484.49 147.287 463.24 150.321 452.312 148.501C428.634 145.467 415.277 119.981 405.563 96.3156C404.956 94.4952 404.349 92.6748 403.134 90.8544C396.456 74.4707 386.742 49.5918 375.813 49.5918C363.064 49.5918 353.35 75.0775 346.064 93.8884C344.85 96.9224 343.636 100.563 342.421 102.99C336.957 116.947 323.6 149.107 295.065 149.107C265.316 149.107 250.745 113.306 243.459 93.8884L242.245 90.8544C235.566 74.4707 225.852 48.985 214.924 48.985C203.389 48.985 194.282 72.0435 186.996 90.2476C184.568 96.9224 181.532 103.597 179.103 109.665C162.104 146.68 140.854 149.714 129.926 147.894C106.248 144.86 92.8909 119.374 83.1768 95.7088C82.5697 93.8884 81.9626 92.068 80.7483 90.2476C74.0699 73.8639 64.3558 48.985 53.4274 48.985C43.7134 48.985 30.9636 72.6503 26.1066 89.034L0 82.3591C1.82139 76.2911 18.2139 22.2856 53.4274 22.2856C83.1768 22.2856 96.5337 56.2666 106.248 81.1455C106.855 82.9659 107.462 84.7863 108.676 86.6067C112.319 95.102 122.033 120.588 133.569 121.801C139.033 122.408 147.533 113.913 154.211 99.3496C156.64 93.8884 159.068 87.8203 161.497 81.7523C171.211 55.053 183.96 22.2856 214.924 22.2856C244.673 22.2856 258.03 56.2666 268.351 81.1455L269.566 84.1795C273.208 93.2816 284.744 121.801 295.672 121.801C299.922 121.801 307.815 116.947 317.529 92.6748C318.743 89.6408 319.958 86.6067 321.172 83.5727C330.886 56.2666 344.243 22.2856 375.813 22.2856C405.563 22.2856 418.92 56.2666 428.634 81.1455C429.241 82.9659 429.848 84.7863 431.062 86.6067C434.705 95.102 444.419 120.588 455.955 121.801C461.419 122.408 469.919 113.913 476.597 99.3496C479.026 93.8884 481.454 87.8203 483.883 81.7523C493.597 55.053 506.346 22.2856 536.703 22.2856C566.452 22.2856 579.809 56.2666 590.13 81.1455L591.345 84.1795C594.987 93.2816 606.523 121.801 617.451 121.801C627.165 121.801 639.915 98.136 644.772 81.7523L671.486 89.6408C669.057 95.7088 652.665 149.714 617.451 149.714Z" fill="#000C9E"/>
</g>
</svg>
