<svg width="300" height="137" viewBox="0 0 300 137" fill="none" xmlns="http://www.w3.org/2000/svg">
<rect x="105" y="75" width="154" height="32" fill="white"/>
<rect x="8" y="8" width="284" height="121" stroke="#32B5FF" stroke-width="2"/>
<rect x="1" y="122" width="14" height="14" fill="white" stroke="#32B5FF" stroke-width="2"/>
<rect x="285" y="122" width="14" height="14" fill="white" stroke="#32B5FF" stroke-width="2"/>
<rect x="285" y="1" width="14" height="14" fill="white" stroke="#32B5FF" stroke-width="2"/>
<rect x="1" y="1" width="14" height="14" fill="white" stroke="#32B5FF" stroke-width="2"/>
<path d="M113.855 53.34C113.855 54.0467 113.675 54.68 113.315 55.24C112.955 55.7867 112.468 56.22 111.855 56.54C111.255 56.8467 110.595 57 109.875 57H103.175V42.8H110.015C110.681 42.8 111.255 42.98 111.735 43.34C112.215 43.6867 112.588 44.14 112.855 44.7C113.121 45.2467 113.255 45.82 113.255 46.42C113.255 47.1267 113.075 47.78 112.715 48.38C112.355 48.98 111.855 49.4267 111.215 49.72C112.015 49.96 112.655 50.4067 113.135 51.06C113.615 51.7133 113.855 52.4733 113.855 53.34ZM104.575 44.02V49.26H109.455C109.921 49.26 110.335 49.14 110.695 48.9C111.068 48.6467 111.355 48.3267 111.555 47.94C111.768 47.54 111.875 47.1067 111.875 46.64C111.875 46.16 111.775 45.72 111.575 45.32C111.375 44.92 111.101 44.6067 110.755 44.38C110.408 44.14 110.015 44.02 109.575 44.02H104.575ZM112.455 53.1C112.455 52.6333 112.348 52.1933 112.135 51.78C111.921 51.3667 111.628 51.0333 111.255 50.78C110.895 50.5267 110.481 50.4 110.015 50.4H104.575V55.78H109.875C110.355 55.78 110.788 55.6533 111.175 55.4C111.561 55.1467 111.868 54.82 112.095 54.42C112.335 54.0067 112.455 53.5667 112.455 53.1ZM116.195 57V46.58H117.555V50.26H119.915C121.102 50.26 121.995 50.5667 122.595 51.18C123.208 51.78 123.515 52.5733 123.515 53.56C123.515 54.2 123.382 54.78 123.115 55.3C122.848 55.82 122.455 56.2333 121.935 56.54C121.415 56.8467 120.775 57 120.015 57H116.195ZM125.415 57V46.6H126.775V57H125.415ZM117.555 55.92H119.835C120.648 55.92 121.235 55.6867 121.595 55.22C121.955 54.74 122.135 54.1933 122.135 53.58C122.135 53.18 122.062 52.8133 121.915 52.48C121.782 52.1333 121.542 51.86 121.195 51.66C120.862 51.4467 120.395 51.34 119.795 51.34H117.555V55.92ZM139.387 57.2C138.374 57.2 137.474 56.9533 136.687 56.46C135.901 55.9533 135.281 55.2933 134.827 54.48C134.374 53.6533 134.147 52.7467 134.147 51.76C134.147 50.7733 134.367 49.88 134.807 49.08C135.247 48.2667 135.861 47.62 136.647 47.14C137.434 46.6467 138.341 46.4 139.367 46.4C140.341 46.4 141.194 46.6267 141.927 47.08C142.674 47.52 143.234 48.12 143.607 48.88L142.287 49.3C141.994 48.7667 141.581 48.3533 141.047 48.06C140.527 47.7533 139.947 47.6 139.307 47.6C138.601 47.6 137.961 47.78 137.387 48.14C136.827 48.5 136.374 49 136.027 49.64C135.694 50.2667 135.527 50.9733 135.527 51.76C135.527 52.5467 135.701 53.26 136.047 53.9C136.394 54.54 136.854 55.0533 137.427 55.44C138.001 55.8133 138.634 56 139.327 56C139.781 56 140.221 55.92 140.647 55.76C141.074 55.6 141.441 55.3867 141.747 55.12C142.054 54.84 142.261 54.54 142.367 54.22L143.707 54.62C143.521 55.1133 143.214 55.56 142.787 55.96C142.361 56.3467 141.854 56.6533 141.267 56.88C140.681 57.0933 140.054 57.2 139.387 57.2ZM150.186 57.2C149.186 57.2 148.293 56.9533 147.506 56.46C146.733 55.9667 146.126 55.3133 145.686 54.5C145.246 53.6733 145.026 52.78 145.026 51.82C145.026 50.8467 145.246 49.9533 145.686 49.14C146.139 48.3133 146.753 47.6533 147.526 47.16C148.313 46.6533 149.199 46.4 150.186 46.4C151.186 46.4 152.073 46.6533 152.846 47.16C153.633 47.6533 154.246 48.3133 154.686 49.14C155.139 49.9533 155.366 50.8467 155.366 51.82C155.366 52.78 155.146 53.6733 154.706 54.5C154.266 55.3133 153.653 55.9667 152.866 56.46C152.093 56.9533 151.199 57.2 150.186 57.2ZM146.406 51.84C146.406 52.6133 146.573 53.32 146.906 53.96C147.253 54.5867 147.713 55.0867 148.286 55.46C148.859 55.82 149.493 56 150.186 56C150.879 56 151.513 55.8133 152.086 55.44C152.659 55.0667 153.119 54.56 153.466 53.92C153.813 53.28 153.986 52.5733 153.986 51.8C153.986 51.0267 153.813 50.32 153.466 49.68C153.119 49.04 152.659 48.5333 152.086 48.16C151.513 47.7867 150.879 47.6 150.186 47.6C149.506 47.6 148.879 47.7933 148.306 48.18C147.733 48.5533 147.273 49.06 146.926 49.7C146.579 50.34 146.406 51.0533 146.406 51.84ZM157.621 57V46.6H158.981V55.16L165.321 46.58H166.541V57H165.181V48.58L158.941 57H157.621ZM174.036 57.2C173.022 57.2 172.122 56.9533 171.336 56.46C170.549 55.9533 169.929 55.2933 169.476 54.48C169.022 53.6533 168.796 52.7467 168.796 51.76C168.796 50.7733 169.016 49.88 169.456 49.08C169.896 48.2667 170.509 47.62 171.296 47.14C172.082 46.6467 172.989 46.4 174.016 46.4C174.989 46.4 175.842 46.6267 176.576 47.08C177.322 47.52 177.882 48.12 178.256 48.88L176.936 49.3C176.642 48.7667 176.229 48.3533 175.696 48.06C175.176 47.7533 174.596 47.6 173.956 47.6C173.249 47.6 172.609 47.78 172.036 48.14C171.476 48.5 171.022 49 170.676 49.64C170.342 50.2667 170.176 50.9733 170.176 51.76C170.176 52.5467 170.349 53.26 170.696 53.9C171.042 54.54 171.502 55.0533 172.076 55.44C172.649 55.8133 173.282 56 173.976 56C174.429 56 174.869 55.92 175.296 55.76C175.722 55.6 176.089 55.3867 176.396 55.12C176.702 54.84 176.909 54.54 177.016 54.22L178.356 54.62C178.169 55.1133 177.862 55.56 177.436 55.96C177.009 56.3467 176.502 56.6533 175.916 56.88C175.329 57.0933 174.702 57.2 174.036 57.2ZM180.472 57V46.58H181.832V51.04H183.392L186.892 46.58H188.452L184.472 51.64L188.952 57H187.352L183.392 52.3H181.832V57H180.472ZM190.004 54C190.004 53.36 190.19 52.8067 190.564 52.34C190.937 51.86 191.45 51.4867 192.104 51.22C192.77 50.9533 193.537 50.82 194.404 50.82C194.91 50.82 195.437 50.8667 195.984 50.96C196.53 51.04 197.017 51.1533 197.444 51.3V50.42C197.444 49.54 197.184 48.84 196.664 48.32C196.144 47.8 195.424 47.54 194.504 47.54C193.957 47.54 193.41 47.6467 192.864 47.86C192.317 48.06 191.75 48.36 191.164 48.76L190.644 47.8C191.324 47.3333 191.99 46.9867 192.644 46.76C193.297 46.52 193.964 46.4 194.644 46.4C195.924 46.4 196.937 46.7667 197.684 47.5C198.43 48.2333 198.804 49.2467 198.804 50.54V55.36C198.804 55.72 198.97 55.9067 199.304 55.92V57C199.01 57.04 198.804 57.0533 198.684 57.04C198.35 57.0267 198.097 56.92 197.924 56.72C197.75 56.52 197.657 56.3067 197.644 56.08L197.624 55.32C197.157 55.92 196.55 56.3867 195.804 56.72C195.057 57.04 194.297 57.2 193.524 57.2C192.844 57.2 192.237 57.06 191.704 56.78C191.17 56.4867 190.75 56.1 190.444 55.62C190.15 55.1267 190.004 54.5867 190.004 54ZM196.984 54.8C197.29 54.44 197.444 54.1067 197.444 53.8V52.28C196.524 51.92 195.564 51.74 194.564 51.74C193.59 51.74 192.804 51.9333 192.204 52.32C191.604 52.7067 191.304 53.2333 191.304 53.9C191.304 54.4733 191.524 54.9933 191.964 55.46C192.417 55.9267 193.044 56.16 193.844 56.16C194.497 56.16 195.104 56.0333 195.664 55.78C196.237 55.5267 196.677 55.2 196.984 54.8ZM204.166 57V47.8H200.446V46.58H209.246V47.8H205.526V57H204.166ZM215.598 57.2C214.598 57.2 213.704 56.9533 212.918 56.46C212.131 55.9667 211.511 55.3067 211.058 54.48C210.604 53.6533 210.378 52.7467 210.378 51.76C210.378 50.7867 210.598 49.8933 211.038 49.08C211.491 48.2667 212.111 47.62 212.898 47.14C213.684 46.6467 214.578 46.4 215.578 46.4C216.604 46.4 217.504 46.6467 218.278 47.14C219.051 47.6333 219.651 48.2867 220.078 49.1C220.518 49.9 220.738 50.78 220.738 51.74C220.738 51.9533 220.731 52.1333 220.718 52.28H211.798C211.864 53.0267 212.078 53.6933 212.438 54.28C212.798 54.8533 213.258 55.3133 213.818 55.66C214.378 55.9933 214.991 56.16 215.658 56.16C216.338 56.16 216.978 55.9867 217.578 55.64C218.178 55.2933 218.604 54.84 218.858 54.28L220.038 54.6C219.824 55.1067 219.491 55.56 219.038 55.96C218.598 56.3467 218.084 56.6533 217.498 56.88C216.911 57.0933 216.278 57.2 215.598 57.2ZM211.758 51.3H219.458C219.404 50.5533 219.198 49.8933 218.838 49.32C218.478 48.7333 218.018 48.28 217.458 47.96C216.898 47.6267 216.278 47.46 215.598 47.46C214.918 47.46 214.298 47.6267 213.738 47.96C213.178 48.28 212.718 48.7333 212.358 49.32C212.011 49.8933 211.811 50.5533 211.758 51.3ZM221.836 57.06V55.82C222.183 55.82 222.496 55.7267 222.776 55.54C223.069 55.3533 223.323 55.0267 223.536 54.56C223.763 54.0933 223.943 53.4467 224.076 52.62C224.209 51.7933 224.296 50.7467 224.336 49.48L224.456 46.58H231.216V57H229.856V47.8H225.656L225.616 49.6C225.549 51.5333 225.369 53.04 225.076 54.12C224.783 55.2 224.363 55.96 223.816 56.4C223.283 56.8267 222.623 57.0467 221.836 57.06ZM234.203 57V46.58H235.563V50.26H238.263C239.449 50.26 240.343 50.5667 240.943 51.18C241.556 51.78 241.863 52.5733 241.863 53.56C241.863 54.2 241.729 54.78 241.463 55.3C241.196 55.82 240.803 56.2333 240.283 56.54C239.763 56.8467 239.123 57 238.363 57H234.203ZM235.563 55.92H238.183C238.996 55.92 239.583 55.6867 239.943 55.22C240.303 54.74 240.483 54.1933 240.483 53.58C240.483 53.18 240.409 52.8133 240.263 52.48C240.129 52.1333 239.889 51.86 239.543 51.66C239.209 51.4467 238.743 51.34 238.143 51.34H235.563V55.92ZM245.568 52.96C245.568 52.08 245.702 51.38 245.968 50.86C246.248 50.34 246.682 49.9067 247.268 49.56C247.535 49.4 247.822 49.2333 248.128 49.06C248.448 48.8867 248.755 48.6867 249.048 48.46C249.342 48.22 249.582 47.9333 249.768 47.6C249.955 47.2667 250.048 46.8533 250.048 46.36C250.048 45.7867 249.915 45.3067 249.648 44.92C249.395 44.5333 249.055 44.2467 248.628 44.06C248.215 43.86 247.782 43.76 247.328 43.76C246.622 43.76 245.982 43.96 245.408 44.36C244.835 44.7467 244.402 45.2267 244.108 45.8L243.168 45.2C243.542 44.3733 244.115 43.74 244.888 43.3C245.662 42.8467 246.482 42.62 247.348 42.62C248.002 42.62 248.628 42.76 249.228 43.04C249.828 43.32 250.315 43.74 250.688 44.3C251.062 44.86 251.248 45.5733 251.248 46.44C251.248 47.1467 251.115 47.72 250.848 48.16C250.595 48.5867 250.262 48.94 249.848 49.22C249.435 49.4867 249.002 49.7467 248.548 50C248.228 50.1733 247.928 50.3667 247.648 50.58C247.382 50.7933 247.162 51.0867 246.988 51.46C246.815 51.82 246.728 52.32 246.728 52.96H245.568ZM245.588 57V54.86H246.768V57H245.588Z" fill="black"/>
<path d="M119.595 95.075C118.845 95.075 118.165 94.925 117.555 94.625C116.945 94.325 116.415 93.92 115.965 93.41C115.525 92.89 115.185 92.31 114.945 91.67C114.705 91.02 114.585 90.355 114.585 89.675C114.585 88.965 114.71 88.29 114.96 87.65C115.22 87 115.575 86.425 116.025 85.925C116.485 85.415 117.02 85.015 117.63 84.725C118.24 84.425 118.905 84.275 119.625 84.275C120.375 84.275 121.055 84.43 121.665 84.74C122.275 85.05 122.8 85.465 123.24 85.985C123.68 86.505 124.02 87.085 124.26 87.725C124.5 88.365 124.62 89.02 124.62 89.69C124.62 90.4 124.495 91.08 124.245 91.73C123.995 92.37 123.64 92.945 123.18 93.455C122.73 93.955 122.2 94.35 121.59 94.64C120.98 94.93 120.315 95.075 119.595 95.075ZM115.95 89.675C115.95 90.215 116.035 90.74 116.205 91.25C116.385 91.75 116.635 92.195 116.955 92.585C117.275 92.975 117.66 93.285 118.11 93.515C118.56 93.745 119.06 93.86 119.61 93.86C120.18 93.86 120.69 93.74 121.14 93.5C121.59 93.26 121.97 92.94 122.28 92.54C122.6 92.14 122.84 91.69 123 91.19C123.17 90.69 123.255 90.185 123.255 89.675C123.255 89.135 123.165 88.615 122.985 88.115C122.815 87.615 122.565 87.17 122.235 86.78C121.915 86.38 121.53 86.07 121.08 85.85C120.64 85.62 120.15 85.505 119.61 85.505C119.04 85.505 118.53 85.625 118.08 85.865C117.63 86.095 117.245 86.41 116.925 86.81C116.615 87.21 116.375 87.66 116.205 88.16C116.035 88.65 115.95 89.155 115.95 89.675ZM128.191 95V88.34H125.491V87.17H132.211V88.34H129.511V95H128.191ZM133.522 95V87.17H140.017V95H138.697V88.34H134.842V95H133.522ZM146.365 95.15C145.725 95.15 145.155 94.99 144.655 94.67C144.155 94.35 143.76 93.945 143.47 93.455V98.195H142.15V87.17H143.32V88.64C143.63 88.16 144.035 87.775 144.535 87.485C145.035 87.185 145.58 87.035 146.17 87.035C146.71 87.035 147.205 87.145 147.655 87.365C148.105 87.585 148.495 87.885 148.825 88.265C149.155 88.645 149.41 89.08 149.59 89.57C149.78 90.05 149.875 90.555 149.875 91.085C149.875 91.825 149.725 92.505 149.425 93.125C149.135 93.745 148.725 94.24 148.195 94.61C147.665 94.97 147.055 95.15 146.365 95.15ZM145.96 94.01C146.48 94.01 146.93 93.87 147.31 93.59C147.69 93.31 147.985 92.945 148.195 92.495C148.415 92.045 148.525 91.575 148.525 91.085C148.525 90.555 148.405 90.07 148.165 89.63C147.935 89.19 147.615 88.84 147.205 88.58C146.805 88.31 146.35 88.175 145.84 88.175C145.53 88.175 145.2 88.255 144.85 88.415C144.51 88.575 144.21 88.79 143.95 89.06C143.7 89.32 143.54 89.61 143.47 89.93V92.165C143.69 92.685 144.025 93.125 144.475 93.485C144.935 93.835 145.43 94.01 145.96 94.01ZM150.881 92.735C150.881 92.235 151.021 91.805 151.301 91.445C151.591 91.075 151.986 90.79 152.486 90.59C152.986 90.39 153.566 90.29 154.226 90.29C154.576 90.29 154.946 90.32 155.336 90.38C155.726 90.43 156.071 90.51 156.371 90.62V90.05C156.371 89.45 156.191 88.98 155.831 88.64C155.471 88.29 154.961 88.115 154.301 88.115C153.871 88.115 153.456 88.195 153.056 88.355C152.666 88.505 152.251 88.725 151.811 89.015L151.331 88.085C151.841 87.735 152.351 87.475 152.861 87.305C153.371 87.125 153.901 87.035 154.451 87.035C155.451 87.035 156.241 87.315 156.821 87.875C157.401 88.425 157.691 89.195 157.691 90.185V93.5C157.691 93.81 157.831 93.97 158.111 93.98V95C157.981 95.02 157.866 95.035 157.766 95.045C157.676 95.055 157.601 95.06 157.541 95.06C157.231 95.06 156.996 94.975 156.836 94.805C156.686 94.635 156.601 94.455 156.581 94.265L156.551 93.77C156.211 94.21 155.766 94.55 155.216 94.79C154.666 95.03 154.121 95.15 153.581 95.15C153.061 95.15 152.596 95.045 152.186 94.835C151.776 94.615 151.456 94.325 151.226 93.965C150.996 93.595 150.881 93.185 150.881 92.735ZM155.981 93.29C156.101 93.15 156.196 93.01 156.266 92.87C156.336 92.72 156.371 92.595 156.371 92.495V91.52C155.731 91.27 155.071 91.145 154.391 91.145C153.721 91.145 153.176 91.28 152.756 91.55C152.346 91.81 152.141 92.17 152.141 92.63C152.141 92.88 152.206 93.125 152.336 93.365C152.476 93.595 152.676 93.785 152.936 93.935C153.206 94.085 153.536 94.16 153.926 94.16C154.336 94.16 154.726 94.08 155.096 93.92C155.466 93.75 155.761 93.54 155.981 93.29ZM159.786 95V87.17H163.836C164.306 87.17 164.696 87.265 165.006 87.455C165.316 87.635 165.546 87.87 165.696 88.16C165.856 88.45 165.936 88.76 165.936 89.09C165.936 89.51 165.836 89.89 165.636 90.23C165.436 90.56 165.146 90.81 164.766 90.98C165.216 91.11 165.581 91.345 165.861 91.685C166.141 92.015 166.281 92.425 166.281 92.915C166.281 93.575 166.046 94.09 165.576 94.46C165.116 94.82 164.511 95 163.761 95H159.786ZM161.046 90.62H163.491C163.841 90.62 164.126 90.49 164.346 90.23C164.576 89.96 164.691 89.655 164.691 89.315C164.691 88.985 164.581 88.7 164.361 88.46C164.151 88.22 163.876 88.1 163.536 88.1H161.046V90.62ZM161.046 94.07H163.731C164.091 94.07 164.391 93.94 164.631 93.68C164.881 93.42 165.006 93.12 165.006 92.78C165.006 92.43 164.886 92.13 164.646 91.88C164.416 91.62 164.126 91.49 163.776 91.49H161.046V94.07ZM167.946 95V87.185H169.266V93.23L173.646 87.17H174.846V95H173.526V89.075L169.206 95H167.946ZM178.86 95V88.34H176.16V87.17H182.88V88.34H180.18V95H178.86ZM184.191 95V87.17H185.511V89.84H187.461C188.381 89.84 189.076 90.075 189.546 90.545C190.026 91.005 190.266 91.61 190.266 92.36C190.266 93.11 190.036 93.74 189.576 94.25C189.116 94.75 188.441 95 187.551 95H184.191ZM185.511 93.965H187.371C187.921 93.965 188.316 93.81 188.556 93.5C188.806 93.18 188.931 92.81 188.931 92.39C188.931 91.98 188.816 91.625 188.586 91.325C188.356 91.025 187.941 90.875 187.341 90.875H185.511V93.965ZM199.715 95.15C199.075 95.15 198.505 94.99 198.005 94.67C197.505 94.35 197.11 93.945 196.82 93.455V98.195H195.5V87.17H196.67V88.64C196.98 88.16 197.385 87.775 197.885 87.485C198.385 87.185 198.93 87.035 199.52 87.035C200.06 87.035 200.555 87.145 201.005 87.365C201.455 87.585 201.845 87.885 202.175 88.265C202.505 88.645 202.76 89.08 202.94 89.57C203.13 90.05 203.225 90.555 203.225 91.085C203.225 91.825 203.075 92.505 202.775 93.125C202.485 93.745 202.075 94.24 201.545 94.61C201.015 94.97 200.405 95.15 199.715 95.15ZM199.31 94.01C199.83 94.01 200.28 93.87 200.66 93.59C201.04 93.31 201.335 92.945 201.545 92.495C201.765 92.045 201.875 91.575 201.875 91.085C201.875 90.555 201.755 90.07 201.515 89.63C201.285 89.19 200.965 88.84 200.555 88.58C200.155 88.31 199.7 88.175 199.19 88.175C198.88 88.175 198.55 88.255 198.2 88.415C197.86 88.575 197.56 88.79 197.3 89.06C197.05 89.32 196.89 89.61 196.82 89.93V92.165C197.04 92.685 197.375 93.125 197.825 93.485C198.285 93.835 198.78 94.01 199.31 94.01ZM208.31 95.15C207.53 95.15 206.84 94.965 206.24 94.595C205.64 94.225 205.17 93.73 204.83 93.11C204.49 92.49 204.32 91.815 204.32 91.085C204.32 90.345 204.49 89.67 204.83 89.06C205.17 88.45 205.64 87.96 206.24 87.59C206.85 87.22 207.545 87.035 208.325 87.035C209.115 87.035 209.8 87.225 210.38 87.605C210.97 87.975 211.425 88.465 211.745 89.075C212.075 89.675 212.24 90.325 212.24 91.025C212.24 91.245 212.23 91.415 212.21 91.535H205.715C205.755 92.045 205.895 92.5 206.135 92.9C206.385 93.29 206.705 93.6 207.095 93.83C207.485 94.05 207.905 94.16 208.355 94.16C208.835 94.16 209.285 94.04 209.705 93.8C210.135 93.56 210.43 93.245 210.59 92.855L211.73 93.17C211.48 93.75 211.045 94.225 210.425 94.595C209.805 94.965 209.1 95.15 208.31 95.15ZM205.67 90.62H211.01C210.97 90.11 210.825 89.66 210.575 89.27C210.325 88.88 210.005 88.575 209.615 88.355C209.225 88.135 208.795 88.025 208.325 88.025C207.865 88.025 207.44 88.135 207.05 88.355C206.66 88.575 206.34 88.88 206.09 89.27C205.85 89.66 205.71 90.11 205.67 90.62ZM216.153 95.105C215.393 95.105 214.748 94.965 214.218 94.685C213.698 94.395 213.298 93.995 213.018 93.485L214.098 93.005C214.278 93.325 214.533 93.575 214.863 93.755C215.203 93.935 215.613 94.025 216.093 94.025C216.663 94.025 217.113 93.9 217.443 93.65C217.773 93.4 217.938 93.065 217.938 92.645C217.938 92.265 217.803 91.96 217.533 91.73C217.273 91.49 216.903 91.365 216.423 91.355H215.628V90.485H216.468C216.788 90.485 217.048 90.375 217.248 90.155C217.458 89.925 217.563 89.64 217.563 89.3C217.563 88.95 217.438 88.67 217.188 88.46C216.938 88.24 216.563 88.13 216.063 88.13C215.273 88.13 214.708 88.45 214.368 89.09L213.363 88.55C213.613 88.08 213.973 87.715 214.443 87.455C214.923 87.185 215.483 87.05 216.123 87.05C216.893 87.05 217.523 87.235 218.013 87.605C218.503 87.965 218.748 88.475 218.748 89.135C218.748 89.505 218.658 89.85 218.478 90.17C218.308 90.48 218.053 90.715 217.713 90.875C218.183 91.015 218.543 91.26 218.793 91.61C219.043 91.95 219.168 92.355 219.168 92.825C219.168 93.545 218.883 94.105 218.313 94.505C217.753 94.905 217.033 95.105 216.153 95.105ZM227.218 95.15C226.528 95.15 225.918 95 225.388 94.7C224.858 94.4 224.433 93.99 224.113 93.47C223.793 92.94 223.598 92.34 223.528 91.67H222.073V95H220.753V87.17H222.073V90.515H223.528C223.608 89.825 223.808 89.22 224.128 88.7C224.458 88.17 224.888 87.76 225.418 87.47C225.948 87.18 226.548 87.035 227.218 87.035C228.008 87.035 228.688 87.22 229.258 87.59C229.828 87.95 230.268 88.435 230.578 89.045C230.888 89.655 231.043 90.34 231.043 91.1C231.043 91.88 230.883 92.575 230.563 93.185C230.253 93.795 229.808 94.275 229.228 94.625C228.658 94.975 227.988 95.15 227.218 95.15ZM227.218 94.01C227.708 94.01 228.138 93.885 228.508 93.635C228.878 93.385 229.168 93.045 229.378 92.615C229.588 92.175 229.693 91.67 229.693 91.1C229.693 90.5 229.583 89.985 229.363 89.555C229.153 89.115 228.858 88.775 228.478 88.535C228.108 88.295 227.688 88.175 227.218 88.175C226.748 88.175 226.328 88.3 225.958 88.55C225.598 88.79 225.318 89.13 225.118 89.57C224.918 90.01 224.818 90.52 224.818 91.1C224.818 91.99 225.043 92.7 225.493 93.23C225.943 93.75 226.518 94.01 227.218 94.01ZM232.633 95V87.17H233.998L236.908 92.3L239.833 87.17H241.168V95H239.908V89.075L237.328 93.605H236.488L233.893 89.075V95H232.633ZM246.762 95.15C245.982 95.15 245.292 94.965 244.692 94.595C244.092 94.225 243.622 93.73 243.282 93.11C242.942 92.49 242.772 91.815 242.772 91.085C242.772 90.345 242.942 89.67 243.282 89.06C243.622 88.45 244.092 87.96 244.692 87.59C245.302 87.22 245.997 87.035 246.777 87.035C247.567 87.035 248.252 87.225 248.832 87.605C249.422 87.975 249.877 88.465 250.197 89.075C250.527 89.675 250.692 90.325 250.692 91.025C250.692 91.245 250.682 91.415 250.662 91.535H244.167C244.207 92.045 244.347 92.5 244.587 92.9C244.837 93.29 245.157 93.6 245.547 93.83C245.937 94.05 246.357 94.16 246.807 94.16C247.287 94.16 247.737 94.04 248.157 93.8C248.587 93.56 248.882 93.245 249.042 92.855L250.182 93.17C249.932 93.75 249.497 94.225 248.877 94.595C248.257 94.965 247.552 95.15 246.762 95.15ZM244.122 90.62H249.462C249.422 90.11 249.277 89.66 249.027 89.27C248.777 88.88 248.457 88.575 248.067 88.355C247.677 88.135 247.247 88.025 246.777 88.025C246.317 88.025 245.892 88.135 245.502 88.355C245.112 88.575 244.792 88.88 244.542 89.27C244.302 89.66 244.162 90.11 244.122 90.62Z" fill="#0816B7"/>
</svg>
